%YAML 1.1
%TAG !u! tag:unity3d.com,2011:
--- !u!114 &11400000
MonoBehaviour:
  m_ObjectHideFlags: 0
  m_CorrespondingSourceObject: {fileID: 0}
  m_PrefabInstance: {fileID: 0}
  m_PrefabAsset: {fileID: 0}
  m_GameObject: {fileID: 0}
  m_Enabled: 1
  m_EditorHideFlags: 0
  m_Script: {fileID: 11500000, guid: 84a92b25f83d49b9bc132d206b370281, type: 3}
  m_Name: arrow-keys -
  m_EditorClassIdentifier: 
  hashCode: -1017958128
  material: {fileID: 9022515512688471438}
  materialHashCode: 0
  m_Version: 1.1.0
  spriteSheet: {fileID: 2800000, guid: 05a405d44e1b0f949999fdf141989838, type: 3}
  m_SpriteCharacterTable:
  - m_ElementType: 2
    m_Unicode: 0
    m_GlyphIndex: 0
    m_Scale: 1
    m_Name: arrow-keys-u
    m_HashCode: -454837592
  - m_ElementType: 2
    m_Unicode: 0
    m_GlyphIndex: 1
    m_Scale: 1
    m_Name: arrow-keys-d
    m_HashCode: -454837575
  - m_ElementType: 2
    m_Unicode: 0
    m_GlyphIndex: 2
    m_Scale: 1
    m_Name: arrow-keys-l
    m_HashCode: -454837583
  - m_ElementType: 2
    m_Unicode: 0
    m_GlyphIndex: 3
    m_Scale: 1
    m_Name: arrow-keys-r
    m_HashCode: -454837585
  m_SpriteGlyphTable:
  - m_Index: 0
    m_Metrics:
      m_Width: 256
      m_Height: 256
      m_HorizontalBearingX: 0
      m_HorizontalBearingY: 224
      m_HorizontalAdvance: 256
    m_GlyphRect:
      m_X: 0
      m_Y: 256
      m_Width: 256
      m_Height: 256
    m_Scale: 1
    m_AtlasIndex: 0
    sprite: {fileID: 6452505535406418498, guid: 05a405d44e1b0f949999fdf141989838,
      type: 3}
  - m_Index: 1
    m_Metrics:
      m_Width: 256
      m_Height: 256
      m_HorizontalBearingX: 0
      m_HorizontalBearingY: 224
      m_HorizontalAdvance: 256
    m_GlyphRect:
      m_X: 256
      m_Y: 256
      m_Width: 256
      m_Height: 256
    m_Scale: 1
    m_AtlasIndex: 0
    sprite: {fileID: -4659900937794492738, guid: 05a405d44e1b0f949999fdf141989838,
      type: 3}
  - m_Index: 2
    m_Metrics:
      m_Width: 256
      m_Height: 256
      m_HorizontalBearingX: 0
      m_HorizontalBearingY: 224
      m_HorizontalAdvance: 256
    m_GlyphRect:
      m_X: 0
      m_Y: 1
      m_Width: 256
      m_Height: 256
    m_Scale: 1
    m_AtlasIndex: 0
    sprite: {fileID: 7344723397349700296, guid: 05a405d44e1b0f949999fdf141989838,
      type: 3}
  - m_Index: 3
    m_Metrics:
      m_Width: 256
      m_Height: 256
      m_HorizontalBearingX: 0
      m_HorizontalBearingY: 224
      m_HorizontalAdvance: 256
    m_GlyphRect:
      m_X: 256
      m_Y: 0
      m_Width: 256
      m_Height: 256
    m_Scale: 1
    m_AtlasIndex: 0
    sprite: {fileID: 7526876184358913376, guid: 05a405d44e1b0f949999fdf141989838,
      type: 3}
  spriteInfoList: []
  fallbackSpriteAssets: []
--- !u!21 &9022515512688471438
Material:
  serializedVersion: 6
  m_ObjectHideFlags: 1
  m_CorrespondingSourceObject: {fileID: 0}
  m_PrefabInstance: {fileID: 0}
  m_PrefabAsset: {fileID: 0}
  m_Name: TextMeshPro/Sprite
  m_Shader: {fileID: 4800000, guid: cf81c85f95fe47e1a27f6ae460cf182c, type: 3}
  m_ShaderKeywords: 
  m_LightmapFlags: 4
  m_EnableInstancingVariants: 0
  m_DoubleSidedGI: 0
  m_CustomRenderQueue: -1
  stringTagMap: {}
  disabledShaderPasses: []
  m_SavedProperties:
    serializedVersion: 3
    m_TexEnvs:
    - _MainTex:
        m_Texture: {fileID: 2800000, guid: 05a405d44e1b0f949999fdf141989838, type: 3}
        m_Scale: {x: 1, y: 1}
        m_Offset: {x: 0, y: 0}
    m_Floats:
    - _ColorMask: 15
    - _Stencil: 0
    - _StencilComp: 8
    - _StencilOp: 0
    - _StencilReadMask: 255
    - _StencilWriteMask: 255
    - _UseUIAlphaClip: 0
    m_Colors:
    - _ClipRect: {r: -32767, g: -32767, b: 32767, a: 32767}
    - _Color: {r: 1, g: 1, b: 1, a: 1}
